\relax 
\citation{johnson2006exposing}
\citation{yerushalmy2011digital}
\citation{amerini2011sift}
\citation{mayer2016improved}
\citation{johnson2006exposing}
\@writefile{toc}{\contentsline {section}{\numberline {1}Exposing Digital Forgeries through Chromatic Aberration}{2}}
\@writefile{toc}{\contentsline {subsection}{\numberline {1.1}Model of Lateral Chromatic Aberration (LCA)}{2}}
\providecommand*\caption@xref[2]{\@setref\relax\@undefined{#1}}
\newlabel{sfig:LCA1D}{{1a}{3}}
\newlabel{sub@sfig:LCA1D}{{a}{3}}
\newlabel{sfig:LCA2D}{{1b}{3}}
\newlabel{sub@sfig:LCA2D}{{b}{3}}
\@writefile{lof}{\contentsline {figure}{\numberline {1}{\ignorespaces Ray tracing diagrams depicting lateral chromatic aberration (LCA) in a) 1D and b) 2D. Due to Snell's law, different color components of polychromatic light rays are focused on laterally offset sensor locations. The displacement vectors between focal points forms a unique fingerprint that is exploited for forgery detection.\relax }}{3}}
\newlabel{fig:LCARayTrace}{{1}{3}}
\newlabel{eq:lca_model_xy}{{4}{3}}
\newlabel{eq:lca_disp1}{{5}{3}}
\newlabel{eq:lca_disp2}{{6}{3}}
\@writefile{lof}{\contentsline {figure}{\numberline {2}{\ignorespaces An example of lateral chromatic aberration in an image. The red and blue LCA \IeC {\textquotedblleft }fringes\IeC {\textquotedblright } become visible in the right inset, which is scaled 50 times larger than the original. This unaltered, JPEG compressed image was taken by a Canon Powershot ELPH 160 camera.\relax }}{4}}
\newlabel{fig:lca_irl}{{2}{4}}
\@writefile{toc}{\contentsline {subsection}{\numberline {1.2}Estimating the Chromatic Aberration Model}{4}}
\newlabel{eq:lca_paramtermax}{{7}{4}}
\@writefile{lof}{\contentsline {figure}{\numberline {3}{\ignorespaces Source (top left) and Forged (top right) images, with their corresponding LCA displacement fields (bottom). In forged images, the LCA from the cut region is transferred to the paste region. This creates a localized inconsistency in the LCA fingerprint.\relax }}{5}}
\newlabel{fig:lca_fieldforgery_example}{{3}{5}}
\@writefile{toc}{\contentsline {subsection}{\numberline {1.3}Forgery Detection}{5}}
\newlabel{eq:lca_disp_local}{{9}{5}}
\newlabel{eq:lca_disp_global}{{10}{5}}
\citation{yerushalmy2011digital}
\citation{johnson2006exposing}
\newlabel{fig:lca_err_hist}{{4a}{6}}
\newlabel{sub@fig:lca_err_hist}{{a}{6}}
\newlabel{fig:lca_forgDetec_example}{{4b}{6}}
\newlabel{sub@fig:lca_forgDetec_example}{{b}{6}}
\@writefile{lof}{\contentsline {figure}{\numberline {4}{\ignorespaces Left: A histogram of average angular error of LCA displacement in authentic images. Right: An original and forged image. The patches overlaid in red have been detected as falsified by Johnson and Farid's forgery detection algorithm.\relax }}{6}}
\@writefile{toc}{\contentsline {section}{\numberline {2}Digital Image Forgery Detection Based on Lens and Sensor Aberration}{6}}
\newlabel{sfig:PFA_diagram}{{5a}{7}}
\newlabel{sub@sfig:PFA_diagram}{{a}{7}}
\newlabel{sfig:PFA_example}{{5b}{7}}
\newlabel{sub@sfig:PFA_example}{{b}{7}}
\@writefile{lof}{\contentsline {figure}{\numberline {5}{\ignorespaces A diagram (a) and image (b) showing how PFA manifests in images. Blue-purple fringes appear on the distal side, relative to the image center, of bright objects.\relax }}{7}}
\newlabel{fig:PFA_diagram}{{5}{7}}
\@writefile{toc}{\contentsline {subsection}{\numberline {2.1}Purple Fringing Aberrations (PFA)}{7}}
\@writefile{toc}{\contentsline {subsection}{\numberline {2.2}Forgery Detection Algorithm}{7}}
\citation{canny1986computational}
\@writefile{toc}{\contentsline {subsubsection}{\numberline {2.2.1}Identifying PFA Events}{8}}
\@writefile{toc}{\contentsline {subsubsection}{\numberline {2.2.2}Determining PFA Direction}{8}}
\@writefile{toc}{\contentsline {subsubsection}{\numberline {2.2.3}Determining PFA Strength}{8}}
\newlabel{sssec:pfa_strength}{{2.2.3}{8}}
\newlabel{sfig:xyY_space}{{6a}{9}}
\newlabel{sub@sfig:xyY_space}{{a}{9}}
\newlabel{sfig:xyY_profiles}{{6b}{9}}
\newlabel{sub@sfig:xyY_profiles}{{b}{9}}
\@writefile{lof}{\contentsline {figure}{\numberline {6}{\ignorespaces Diagrams in the xyY color space. (a) shows the chromaticity (x-y) space at a fixed luminance (Y). (b) shows two diagrams of the chromaticity profile across an object edge. The left profile contains no PFA trace. The right profile deviates strongly towards 450nm, as depicted by the purple arrow, indicating a strong PFA trace.\relax }}{9}}
\@writefile{toc}{\contentsline {subsubsection}{\numberline {2.2.4}Assigning Reliability Measure}{9}}
\@writefile{toc}{\contentsline {subsubsection}{\numberline {2.2.5}Calculating the Location of the Image Center}{9}}
\newlabel{eq:pfa_dist}{{15}{9}}
\citation{amerini2011sift}
\@writefile{toc}{\contentsline {subsubsection}{\numberline {2.2.6}Detecting Traces of Forgery}{10}}
\@writefile{toc}{\contentsline {section}{\numberline {3}A SIFT-Based Forensic Method for Copy\IeC {\textendash }Move Attack Detection and Transformation Recovery}{10}}
\citation{lowe2004distinctive}
\newlabel{sfig:sift_dog}{{7a}{11}}
\newlabel{sub@sfig:sift_dog}{{a}{11}}
\newlabel{sfig:sift_feature_example}{{7b}{11}}
\newlabel{sub@sfig:sift_feature_example}{{b}{11}}
\@writefile{lof}{\contentsline {figure}{\numberline {7}{\ignorespaces Visualizations of key parts of the SIFT algorithm.\relax }}{11}}
\newlabel{fig:Sift_DoG_Feat}{{7}{11}}
\@writefile{toc}{\contentsline {subsection}{\numberline {3.1}The scale invariant feature transform (SIFT)}{11}}
\@writefile{toc}{\contentsline {subsubsection}{\numberline {3.1.1}Keypoint localization}{11}}
\@writefile{toc}{\contentsline {subsubsection}{\numberline {3.1.2}Orientation Assignment}{12}}
\@writefile{toc}{\contentsline {subsubsection}{\numberline {3.1.3}Local Descriptor Features}{12}}
\@writefile{toc}{\contentsline {subsection}{\numberline {3.2}Forgery Detection}{13}}
\@writefile{toc}{\contentsline {subsubsection}{\numberline {3.2.1}Keypoint Matching}{13}}
\@writefile{toc}{\contentsline {subsubsection}{\numberline {3.2.2}Clustering and Forgery Detection}{13}}
\@writefile{toc}{\contentsline {subsection}{\numberline {3.3}Transformation Recovery}{13}}
\citation{gloe2010efficient}
\@writefile{toc}{\contentsline {subsubsection}{\numberline {3.3.1}RANdom SAmple Consensus (RANSAC)}{14}}
\@writefile{toc}{\contentsline {section}{\numberline {4}Synthesis}{14}}
\newlabel{eq:JF_LCA_model}{{24}{14}}
\newlabel{eq:lcadisp}{{25}{14}}
\newlabel{fig:dLCA_falsified}{{\caption@xref {fig:dLCA_falsified}{ on input line 40}}{15}}
\@writefile{lof}{\contentsline {figure}{\numberline {8}{\ignorespaces \textbf  {Left:} Lateral chromatic aberration (LCA) displacement vector field for an authentic image. \textbf  {Right:} LCA displacement vector field for a copy-paste forgery, with pasted LCA in red. Displacement vectors are scaled 200X. \relax }}{15}}
\newlabel{fig:dCLA_auth}{{8}{15}}
\@writefile{toc}{\contentsline {subsection}{\numberline {4.1}Lateral Chromatic Aberration Estimation}{15}}
\newlabel{ssec:background-lca_est}{{4.1}{15}}
\newlabel{eq:localLCAest}{{26}{15}}
\@writefile{toc}{\contentsline {subsection}{\numberline {4.2}Error Model}{15}}
\newlabel{sec:errormodel}{{4.2}{15}}
\@writefile{lof}{\contentsline {figure}{\numberline {9}{\ignorespaces Left: Histogram of and Gaussian fit of $n_x$ from $700$ test points of an unaltered image taken by a Sony Cybershot DSCV1. Right: Histograms of model discrepancy $e_x$ in a forged image.\relax }}{16}}
\newlabel{fig:ErrComponentExample}{{9}{16}}
\newlabel{eq:authNoiseModel}{{27}{16}}
\newlabel{eq:forgNoiseModel}{{28}{16}}
\newlabel{eq:lcaDiscrepency}{{29}{16}}
\newlabel{eq:e_auth}{{30}{16}}
\newlabel{eq:e_forg}{{31}{17}}
\@writefile{toc}{\contentsline {subsection}{\numberline {4.3}FORGERY DETECTION}{17}}
\newlabel{sec:forgerydetection}{{4.3}{17}}
\newlabel{eq:hypotheses}{{32}{17}}
\newlabel{eq:pdfNDGauss}{{33}{17}}
\newlabel{eq:forgNeymanPearsonExpanded}{{34}{17}}
\newlabel{eq:optimalDecision}{{35}{17}}
\citation{harris1988combined}
\@writefile{lof}{\contentsline {figure}{\numberline {10}{\ignorespaces From left to right are the receiver operating characteristic for forgery detection with CER, SAN and CPS cameras as the destination image. For each source camera two line-plots are shown; solid for the proposed detection ROC, and dashed for the angular-error ROC.\relax }}{18}}
\newlabel{fig:CPFD_ROC}{{10}{18}}
\newlabel{eq:forgOffsetEstimate}{{36}{18}}
\newlabel{eq:proposedDetector}{{37}{18}}
\@writefile{toc}{\contentsline {subsection}{\numberline {4.4}Experimental Results}{18}}
\newlabel{sec:results}{{4.4}{18}}
\@writefile{lot}{\contentsline {table}{\numberline {1}{\ignorespaces Camera models used in experimental results\relax }}{19}}
\newlabel{tab:9BlkCameras}{{1}{19}}
\@writefile{lot}{\contentsline {table}{\numberline {2}{\ignorespaces Differences in detection rates between proposed method and angular error method at $P_{FA} = 0.01$\relax }}{19}}
\newlabel{tab:cpfd_Diff_01}{{2}{19}}
\@writefile{toc}{\contentsline {subsubsection}{\numberline {4.4.1}Copy-Paste Forgery Detection}{19}}
\citation{johnson2006exposing}
\@writefile{lof}{\contentsline {figure}{\numberline {11}{\ignorespaces The receiver operating characteristic for detection of copy-move forgeries created radially using images from the CER camera.\relax }}{20}}
\newlabel{fig:RadialForgResults}{{11}{20}}
\@writefile{toc}{\contentsline {subsubsection}{\numberline {4.4.2}Radial Forgery Experiment}{20}}
\newlabel{exp:RadialForgery}{{4.4.2}{20}}
\@writefile{toc}{\contentsline {section}{\numberline {5}Summary and Discussion}{20}}
\citation{yerushalmy2011digital}
\citation{johnson2006exposing}
\citation{yerushalmy2011digital}
\citation{johnson2006exposing}
\citation{yerushalmy2011digital}
\citation{yerushalmy2011digital}
\citation{johnson2006exposing}
\citation{johnson2006exposing}
\citation{yerushalmy2011digital}
\citation{amerini2011sift}
\citation{amerini2011sift}
\citation{johnson2006exposing}
\citation{yerushalmy2011digital}
\bibstyle{IEEEtran}
\bibdata{bib/LCABib,bib/SplicingBib}
\bibcite{johnson2006exposing}{1}
\bibcite{yerushalmy2011digital}{2}
\bibcite{amerini2011sift}{3}
\bibcite{mayer2016improved}{4}
\bibcite{canny1986computational}{5}
\bibcite{lowe2004distinctive}{6}
\bibcite{gloe2010efficient}{7}
\bibcite{harris1988combined}{8}
