\relax 
\providecommand\hyper@newdestlabel[2]{}
\providecommand\HyperFirstAtBeginDocument{\AtBeginDocument}
\HyperFirstAtBeginDocument{\ifx\hyper@anchor\@undefined
\global\let\oldcontentsline\contentsline
\gdef\contentsline#1#2#3#4{\oldcontentsline{#1}{#2}{#3}}
\global\let\oldnewlabel\newlabel
\gdef\newlabel#1#2{\newlabelxx{#1}#2}
\gdef\newlabelxx#1#2#3#4#5#6{\oldnewlabel{#1}{{#2}{#3}}}
\AtEndDocument{\ifx\hyper@anchor\@undefined
\let\contentsline\oldcontentsline
\let\newlabel\oldnewlabel
\fi}
\fi}
\global\let\hyper@last\relax 
\gdef\HyperFirstAtBeginDocument#1{#1}
\providecommand\HyField@AuxAddToFields[1]{}
\providecommand\HyField@AuxAddToCoFields[2]{}
\@writefile{toc}{\beamer@endinputifotherversion {3.36pt}}
\@writefile{nav}{\beamer@endinputifotherversion {3.36pt}}
\@writefile{nav}{\headcommand {\slideentry {0}{0}{1}{1/1}{}{0}}}
\@writefile{nav}{\headcommand {\beamer@framepages {1}{1}}}
\@writefile{toc}{\beamer@sectionintoc {1}{Introduction}{2}{0}{1}}
\@writefile{nav}{\headcommand {\sectionentry {1}{Introduction}{2}{Introduction}{0}}}
\@writefile{nav}{\headcommand {\beamer@sectionpages {1}{1}}}
\@writefile{nav}{\headcommand {\beamer@subsectionpages {1}{1}}}
\@writefile{nav}{\headcommand {\slideentry {1}{0}{1}{2/3}{}{0}}}
\@writefile{nav}{\headcommand {\beamer@framepages {2}{3}}}
\@writefile{nav}{\headcommand {\slideentry {1}{0}{2}{4/6}{}{0}}}
\@writefile{nav}{\headcommand {\beamer@framepages {4}{6}}}
\@writefile{nav}{\headcommand {\slideentry {1}{0}{3}{7/7}{}{0}}}
\@writefile{nav}{\headcommand {\beamer@framepages {7}{7}}}
\@writefile{nav}{\headcommand {\slideentry {1}{0}{4}{8/11}{}{0}}}
\@writefile{nav}{\headcommand {\beamer@framepages {8}{11}}}
\@writefile{nav}{\headcommand {\slideentry {1}{0}{5}{12/12}{}{0}}}
\@writefile{nav}{\headcommand {\beamer@framepages {12}{12}}}
\@writefile{toc}{\beamer@sectionintoc {2}{Background}{13}{0}{2}}
\@writefile{nav}{\headcommand {\sectionentry {2}{Background}{13}{Background}{0}}}
\@writefile{nav}{\headcommand {\beamer@sectionpages {2}{12}}}
\@writefile{nav}{\headcommand {\beamer@subsectionpages {2}{12}}}
\@writefile{nav}{\headcommand {\slideentry {2}{0}{1}{13/14}{}{0}}}
\@writefile{nav}{\headcommand {\beamer@framepages {13}{14}}}
\@writefile{nav}{\headcommand {\slideentry {2}{0}{2}{15/18}{}{0}}}
\@writefile{nav}{\headcommand {\beamer@framepages {15}{18}}}
\@writefile{snm}{\beamer@slide {eq:JohnsonFaridModel}{19}}
\newlabel{eq:JohnsonFaridModel}{{8}{19}{Background}{Doc-Start}{}}
\@writefile{nav}{\headcommand {\slideentry {2}{0}{3}{19/20}{}{0}}}
\@writefile{nav}{\headcommand {\beamer@framepages {19}{20}}}
\@writefile{nav}{\headcommand {\slideentry {2}{0}{4}{21/21}{}{0}}}
\@writefile{nav}{\headcommand {\beamer@framepages {21}{21}}}
\@writefile{nav}{\headcommand {\slideentry {2}{0}{5}{22/25}{}{0}}}
\@writefile{nav}{\headcommand {\beamer@framepages {22}{25}}}
\@writefile{nav}{\headcommand {\slideentry {2}{0}{6}{26/28}{}{0}}}
\@writefile{nav}{\headcommand {\beamer@framepages {26}{28}}}
\@writefile{nav}{\headcommand {\slideentry {2}{0}{7}{29/29}{}{0}}}
\@writefile{nav}{\headcommand {\beamer@framepages {29}{29}}}
\@writefile{nav}{\headcommand {\slideentry {2}{0}{8}{30/31}{}{0}}}
\@writefile{nav}{\headcommand {\beamer@framepages {30}{31}}}
\@writefile{nav}{\headcommand {\slideentry {2}{0}{9}{32/34}{}{0}}}
\@writefile{nav}{\headcommand {\beamer@framepages {32}{34}}}
\@writefile{nav}{\headcommand {\slideentry {2}{0}{10}{35/37}{}{0}}}
\@writefile{nav}{\headcommand {\beamer@framepages {35}{37}}}
\@writefile{toc}{\beamer@sectionintoc {3}{Forgery Detection}{38}{0}{3}}
\@writefile{nav}{\headcommand {\sectionentry {3}{Forgery Detection}{38}{Forgery Detection}{0}}}
\@writefile{nav}{\headcommand {\beamer@sectionpages {13}{37}}}
\@writefile{nav}{\headcommand {\beamer@subsectionpages {13}{37}}}
\@writefile{nav}{\headcommand {\slideentry {3}{0}{1}{38/41}{}{0}}}
\@writefile{nav}{\headcommand {\beamer@framepages {38}{41}}}
\@writefile{nav}{\headcommand {\slideentry {3}{0}{2}{42/42}{}{0}}}
\@writefile{nav}{\headcommand {\beamer@framepages {42}{42}}}
\@writefile{nav}{\headcommand {\slideentry {3}{0}{3}{43/43}{}{0}}}
\@writefile{nav}{\headcommand {\beamer@framepages {43}{43}}}
\@writefile{nav}{\headcommand {\slideentry {3}{0}{4}{44/46}{}{0}}}
\@writefile{nav}{\headcommand {\beamer@framepages {44}{46}}}
\@writefile{nav}{\headcommand {\slideentry {3}{0}{5}{47/47}{}{0}}}
\@writefile{nav}{\headcommand {\beamer@framepages {47}{47}}}
\@writefile{nav}{\headcommand {\slideentry {3}{0}{6}{48/49}{}{0}}}
\@writefile{nav}{\headcommand {\beamer@framepages {48}{49}}}
\@writefile{nav}{\headcommand {\slideentry {3}{0}{7}{50/50}{}{0}}}
\@writefile{nav}{\headcommand {\beamer@framepages {50}{50}}}
\newlabel{eq:proposedDetector}{{23}{51}{Forgery Detection}{Doc-Start}{}}
\@writefile{snm}{\beamer@slide {eq:proposedDetector}{51}}
\@writefile{nav}{\headcommand {\slideentry {3}{0}{8}{51/51}{}{0}}}
\@writefile{nav}{\headcommand {\beamer@framepages {51}{51}}}
\newlabel{tab:9BlkCameras}{{1}{52}{Forgery Detection}{Doc-Start}{}}
\@writefile{snm}{\beamer@slide {tab:9BlkCameras}{52}}
\@writefile{nav}{\headcommand {\slideentry {3}{0}{9}{52/54}{}{0}}}
\@writefile{nav}{\headcommand {\beamer@framepages {52}{54}}}
\newlabel{tab:cpfd_Diff_01}{{2}{55}{Forgery Detection}{Doc-Start}{}}
\@writefile{snm}{\beamer@slide {tab:cpfd_Diff_01}{55}}
\@writefile{nav}{\headcommand {\slideentry {3}{0}{10}{55/57}{}{0}}}
\@writefile{nav}{\headcommand {\beamer@framepages {55}{57}}}
\@writefile{nav}{\headcommand {\slideentry {3}{0}{11}{58/59}{}{0}}}
\@writefile{nav}{\headcommand {\beamer@framepages {58}{59}}}
\newlabel{tab:cpfd_Diff_01}{{3}{60}{Forgery Detection}{Doc-Start}{}}
\@writefile{snm}{\beamer@slide {tab:cpfd_Diff_01}{60}}
\@writefile{nav}{\headcommand {\slideentry {3}{0}{12}{60/60}{}{0}}}
\@writefile{nav}{\headcommand {\beamer@framepages {60}{60}}}
\@writefile{nav}{\headcommand {\slideentry {3}{0}{13}{61/63}{}{0}}}
\@writefile{nav}{\headcommand {\beamer@framepages {61}{63}}}
\@writefile{nav}{\headcommand {\slideentry {3}{0}{14}{64/64}{}{0}}}
\@writefile{nav}{\headcommand {\beamer@framepages {64}{64}}}
\@writefile{nav}{\headcommand {\beamer@partpages {1}{64}}}
\@writefile{nav}{\headcommand {\beamer@subsectionpages {38}{64}}}
\@writefile{nav}{\headcommand {\beamer@sectionpages {38}{64}}}
\@writefile{nav}{\headcommand {\beamer@documentpages {64}}}
\@writefile{nav}{\headcommand {\def \inserttotalframenumber {29}}}
